LAB8/simulation/qsim/ControleSemaforo.msim.vcd
$comment
	File created using the following command:
		vcd file ControleSemaforo.msim.vcd -direction
$end
$date
	Tue Jan 23 00:04:36 2024
$end
$version
	ModelSim Version 10.1d
$end
$timescale
	1ps
$end
$scope module ControleSemaforo_vlg_vec_tst $end
$var reg 1 ! clear $end
$var reg 1 " clock $end
$var wire 1 # amarelo $end
$var wire 1 $ verde $end
$var wire 1 % vermelho $end
$var wire 1 & sampler $end
$scope module i1 $end
$var wire 1 ' gnd $end
$var wire 1 ( vcc $end
$var wire 1 ) unknown $end
$var tri1 1 * devclrn $end
$var tri1 1 + devpor $end
$var tri1 1 , devoe $end
$var wire 1 - inst|inst79~q $end
$var wire 1 . inst|inst77~q $end
$var wire 1 / inst|inst73~q $end
$var wire 1 0 inst|inst71~q $end
$var wire 1 1 inst|inst69~q $end
$var wire 1 2 inst|inst67~q $end
$var wire 1 3 inst|inst63~q $end
$var wire 1 4 inst|inst65~q $end
$var wire 1 5 inst|inst61~q $end
$var wire 1 6 inst|inst58~q $end
$var wire 1 7 inst|inst54~q $end
$var wire 1 8 inst|inst52~q $end
$var wire 1 9 inst|inst50~q $end
$var wire 1 : inst|inst48~q $end
$var wire 1 ; inst|inst44~q $end
$var wire 1 < inst|inst46~q $end
$var wire 1 = inst|inst43~q $end
$var wire 1 > inst|inst39~q $end
$var wire 1 ? inst|inst35~q $end
$var wire 1 @ inst|inst33~q $end
$var wire 1 A inst|inst31~q $end
$var wire 1 B inst|inst29~q $end
$var wire 1 C inst|inst25~q $end
$var wire 1 D inst|inst27~q $end
$var wire 1 E inst|inst~q $end
$var wire 1 F inst|inst79~0_combout $end
$var wire 1 G inst|inst77~0_combout $end
$var wire 1 H inst|inst73~0_combout $end
$var wire 1 I inst|inst71~0_combout $end
$var wire 1 J inst|inst69~0_combout $end
$var wire 1 K inst|inst67~0_combout $end
$var wire 1 L inst|inst63~0_combout $end
$var wire 1 M inst|inst65~0_combout $end
$var wire 1 N inst|inst61~0_combout $end
$var wire 1 O inst|inst58~0_combout $end
$var wire 1 P inst|inst54~0_combout $end
$var wire 1 Q inst|inst52~0_combout $end
$var wire 1 R inst|inst50~0_combout $end
$var wire 1 S inst|inst48~0_combout $end
$var wire 1 T inst|inst44~0_combout $end
$var wire 1 U inst|inst46~0_combout $end
$var wire 1 V inst|inst43~0_combout $end
$var wire 1 W inst|inst39~0_combout $end
$var wire 1 X inst|inst35~0_combout $end
$var wire 1 Y inst|inst33~0_combout $end
$var wire 1 Z inst|inst31~0_combout $end
$var wire 1 [ inst|inst29~0_combout $end
$var wire 1 \ inst|inst25~0_combout $end
$var wire 1 ] inst|inst27~0_combout $end
$var wire 1 ^ inst|inst~0_combout $end
$var wire 1 _ clock~input_o $end
$var wire 1 ` inst|inst79~clkctrl_outclk $end
$var wire 1 a inst|inst79~feeder_combout $end
$var wire 1 b inst|inst77~feeder_combout $end
$var wire 1 c inst|inst71~feeder_combout $end
$var wire 1 d inst|inst63~feeder_combout $end
$var wire 1 e inst|inst61~feeder_combout $end
$var wire 1 f inst|inst58~feeder_combout $end
$var wire 1 g inst|inst54~feeder_combout $end
$var wire 1 h inst|inst52~feeder_combout $end
$var wire 1 i inst|inst48~feeder_combout $end
$var wire 1 j inst|inst44~feeder_combout $end
$var wire 1 k inst|inst46~feeder_combout $end
$var wire 1 l inst|inst39~feeder_combout $end
$var wire 1 m inst|inst35~feeder_combout $end
$var wire 1 n inst|inst33~feeder_combout $end
$var wire 1 o inst|inst29~feeder_combout $end
$var wire 1 p inst|inst25~feeder_combout $end
$var wire 1 q verde~output_o $end
$var wire 1 r amarelo~output_o $end
$var wire 1 s vermelho~output_o $end
$var wire 1 t inst7|inst|inst3~0_combout $end
$var wire 1 u inst7|inst|inst9~0_combout $end
$var wire 1 v inst7|inst|inst9~q $end
$var wire 1 w inst9|inst1~0_combout $end
$var wire 1 x inst9|inst1~combout $end
$var wire 1 y inst7|inst|inst3~q $end
$var wire 1 z inst7|inst|inst6~0_combout $end
$var wire 1 { inst7|inst|inst6~q $end
$var wire 1 | inst9|inst6~0_combout $end
$var wire 1 } inst9|inst6~1_combout $end
$var wire 1 ~ inst13|inst7~combout $end
$var wire 1 !! clear~input_o $end
$var wire 1 "! clear~inputclkctrl_outclk $end
$var wire 1 #! inst17|inst1~q $end
$var wire 1 $! inst17|inst~0_combout $end
$var wire 1 %! inst17|inst~q $end
$var wire 1 &! inst15|inst2~combout $end
$var wire 1 '! inst15|inst1~0_combout $end
$var wire 1 (! inst15|inst~combout $end
$upscope $end
$upscope $end
$enddefinitions $end
#0
$dumpvars
0!
0"
x#
x$
x%
x&
0'
1(
x)
1*
1+
1,
0-
0.
0/
00
01
02
03
04
05
06
07
08
09
0:
0;
0<
0=
0>
0?
0@
0A
0B
0C
0D
0E
xF
xG
xH
xI
xJ
xK
xL
xM
xN
xO
xP
xQ
xR
xS
xT
xU
xV
xW
xX
xY
xZ
x[
x\
x]
x^
0_
x`
xa
xb
xc
xd
xe
xf
xg
xh
xi
xj
xk
xl
xm
xn
xo
xp
xq
xr
xs
1t
xu
0v
xw
xx
0y
xz
0{
x|
x}
x~
0!!
x"!
0#!
x$!
0%!
x&!
x'!
x(!
$end
#145
0"!
#435
0|
#440
0w
#553
0u
#554
1V
#555
1H
1J
1T
#558
1R
1]
#563
1X
#564
1O
#568
1[
#570
0z
#573
1M
#585
0(!
#603
1W
#617
1F
#671
1Q
#714
1G
1S
#716
1P
#717
1Y
#722
1L
#723
1\
#728
1Z
#733
1K
#769
0x
#771
0}
#833
0~
#857
1U
#883
0&!
#887
0'!
#902
1I
#1002
1j
#1008
1m
#1009
1o
#1010
1f
#1067
1a
#1073
1N
#1100
0$!
#1126
0`
#1158
1l
#1255
1^
#1257
1h
#1270
1g
1i
1b
#1274
1n
#1276
1d
#1277
1p
#1555
1k
#1638
1c
#2017
1e
#3134
0s
0%
#3426
0r
0#
#3547
1q
1$
