Neander/simulation/qsim/Neander.msim.vcd
$comment
	File created using the following command:
		vcd file Neander.msim.vcd -direction
$end
$date
	Wed Feb 07 08:45:31 2024
$end
$version
	ModelSim Version 10.1d
$end
$timescale
	1ps
$end
$scope module Neander_vlg_vec_tst $end
$var reg 1 ! clear $end
$var reg 1 " clock_in $end
$var reg 1 # step_button $end
$var reg 1 $ step_mode_switch $end
$var wire 1 % AC_A0 $end
$var wire 1 & AC_A1 $end
$var wire 1 ' AC_B0 $end
$var wire 1 ( AC_B1 $end
$var wire 1 ) AC_C0 $end
$var wire 1 * AC_C1 $end
$var wire 1 + AC_D0 $end
$var wire 1 , AC_D1 $end
$var wire 1 - AC_E0 $end
$var wire 1 . AC_E1 $end
$var wire 1 / AC_F0 $end
$var wire 1 0 AC_F1 $end
$var wire 1 1 AC_G0 $end
$var wire 1 2 AC_G1 $end
$var wire 1 3 AC_OUT [7] $end
$var wire 1 4 AC_OUT [6] $end
$var wire 1 5 AC_OUT [5] $end
$var wire 1 6 AC_OUT [4] $end
$var wire 1 7 AC_OUT [3] $end
$var wire 1 8 AC_OUT [2] $end
$var wire 1 9 AC_OUT [1] $end
$var wire 1 : AC_OUT [0] $end
$var wire 1 ; CARGA_AC $end
$var wire 1 < CARGA_NZ $end
$var wire 1 = CARGA_PC $end
$var wire 1 > CARGA_RDM $end
$var wire 1 ? CARGA_REM $end
$var wire 1 @ CARGA_RI $end
$var wire 1 A flag_N $end
$var wire 1 B flag_Z $end
$var wire 1 C GOTO_t0 $end
$var wire 1 D HLT $end
$var wire 1 E INCREMENTA_PC $end
$var wire 1 F PC_A0 $end
$var wire 1 G PC_A1 $end
$var wire 1 H PC_B0 $end
$var wire 1 I PC_B1 $end
$var wire 1 J PC_C0 $end
$var wire 1 K PC_C1 $end
$var wire 1 L PC_D0 $end
$var wire 1 M PC_D1 $end
$var wire 1 N PC_E0 $end
$var wire 1 O PC_E1 $end
$var wire 1 P PC_F0 $end
$var wire 1 Q PC_F1 $end
$var wire 1 R PC_G0 $end
$var wire 1 S PC_G1 $end
$var wire 1 T PC_OUT [7] $end
$var wire 1 U PC_OUT [6] $end
$var wire 1 V PC_OUT [5] $end
$var wire 1 W PC_OUT [4] $end
$var wire 1 X PC_OUT [3] $end
$var wire 1 Y PC_OUT [2] $end
$var wire 1 Z PC_OUT [1] $end
$var wire 1 [ PC_OUT [0] $end
$var wire 1 \ READ $end
$var wire 1 ] SEL $end
$var wire 1 ^ ULA_ADD $end
$var wire 1 _ ULA_AND $end
$var wire 1 ` ULA_NOT $end
$var wire 1 a ULA_OR $end
$var wire 1 b ULA_Y $end
$var wire 1 c WRITE $end
$var wire 1 d sampler $end
$scope module i1 $end
$var wire 1 e gnd $end
$var wire 1 f vcc $end
$var wire 1 g unknown $end
$var tri1 1 h devclrn $end
$var tri1 1 i devpor $end
$var tri1 1 j devoe $end
$var wire 1 k inst22|Mux1_rtl_0|auto_generated|ram_block1a7 $end
$var wire 1 l inst22|Mux1_rtl_0|auto_generated|ram_block1a2 $end
$var wire 1 m inst3|inst~10_combout $end
$var wire 1 n inst8|inst40~1_combout $end
$var wire 1 o inst6|inst10|inst4|inst3~9_combout $end
$var wire 1 p inst|inst15|inst~combout $end
$var wire 1 q inst|inst13|inst~combout $end
$var wire 1 r inst|inst|inst3~combout $end
$var wire 1 s inst5|inst73~q $end
$var wire 1 t inst5|inst71~q $end
$var wire 1 u inst5|inst69~q $end
$var wire 1 v inst5|inst67~q $end
$var wire 1 w inst5|inst63~q $end
$var wire 1 x inst5|inst65~q $end
$var wire 1 y inst5|inst61~q $end
$var wire 1 z inst5|inst58~q $end
$var wire 1 { inst5|inst54~q $end
$var wire 1 | inst5|inst52~q $end
$var wire 1 } inst5|inst50~q $end
$var wire 1 ~ inst5|inst48~q $end
$var wire 1 !! inst5|inst44~q $end
$var wire 1 "! inst5|inst46~q $end
$var wire 1 #! inst5|inst43~q $end
$var wire 1 $! inst5|inst39~q $end
$var wire 1 %! inst5|inst35~q $end
$var wire 1 &! inst5|inst33~q $end
$var wire 1 '! inst5|inst31~q $end
$var wire 1 (! inst5|inst29~q $end
$var wire 1 )! inst5|inst25~q $end
$var wire 1 *! inst5|inst27~q $end
$var wire 1 +! inst5|inst~q $end
$var wire 1 ,! inst5|inst73~0_combout $end
$var wire 1 -! inst5|inst71~0_combout $end
$var wire 1 .! inst5|inst69~0_combout $end
$var wire 1 /! inst5|inst67~0_combout $end
$var wire 1 0! inst5|inst63~0_combout $end
$var wire 1 1! inst5|inst65~0_combout $end
$var wire 1 2! inst5|inst61~0_combout $end
$var wire 1 3! inst5|inst58~0_combout $end
$var wire 1 4! inst5|inst54~0_combout $end
$var wire 1 5! inst5|inst52~0_combout $end
$var wire 1 6! inst5|inst50~0_combout $end
$var wire 1 7! inst5|inst48~0_combout $end
$var wire 1 8! inst5|inst44~0_combout $end
$var wire 1 9! inst5|inst46~0_combout $end
$var wire 1 :! inst5|inst43~0_combout $end
$var wire 1 ;! inst5|inst39~0_combout $end
$var wire 1 <! inst5|inst35~0_combout $end
$var wire 1 =! inst5|inst33~0_combout $end
$var wire 1 >! inst5|inst31~0_combout $end
$var wire 1 ?! inst5|inst29~0_combout $end
$var wire 1 @! inst5|inst25~0_combout $end
$var wire 1 A! inst5|inst27~0_combout $end
$var wire 1 B! inst5|inst~0_combout $end
$var wire 1 C! step_mode_switch~input_o $end
$var wire 1 D! clock_in~input_o $end
$var wire 1 E! inst5|inst73~feeder_combout $end
$var wire 1 F! inst5|inst71~feeder_combout $end
$var wire 1 G! inst5|inst69~feeder_combout $end
$var wire 1 H! inst5|inst67~feeder_combout $end
$var wire 1 I! inst5|inst63~feeder_combout $end
$var wire 1 J! inst5|inst61~feeder_combout $end
$var wire 1 K! inst5|inst54~feeder_combout $end
$var wire 1 L! inst5|inst50~feeder_combout $end
$var wire 1 M! inst5|inst43~feeder_combout $end
$var wire 1 N! inst5|inst35~feeder_combout $end
$var wire 1 O! inst5|inst25~feeder_combout $end
$var wire 1 P! inst5|inst~feeder_combout $end
$var wire 1 Q! CARGA_REM~output_o $end
$var wire 1 R! CARGA_RI~output_o $end
$var wire 1 S! READ~output_o $end
$var wire 1 T! SEL~output_o $end
$var wire 1 U! PC_OUT[7]~output_o $end
$var wire 1 V! PC_OUT[6]~output_o $end
$var wire 1 W! PC_OUT[5]~output_o $end
$var wire 1 X! PC_OUT[4]~output_o $end
$var wire 1 Y! PC_OUT[3]~output_o $end
$var wire 1 Z! PC_OUT[2]~output_o $end
$var wire 1 [! PC_OUT[1]~output_o $end
$var wire 1 \! PC_OUT[0]~output_o $end
$var wire 1 ]! INCREMENTA_PC~output_o $end
$var wire 1 ^! CARGA_PC~output_o $end
$var wire 1 _! flag_N~output_o $end
$var wire 1 `! ULA_ADD~output_o $end
$var wire 1 a! ULA_AND~output_o $end
$var wire 1 b! ULA_OR~output_o $end
$var wire 1 c! ULA_NOT~output_o $end
$var wire 1 d! ULA_Y~output_o $end
$var wire 1 e! AC_OUT[7]~output_o $end
$var wire 1 f! AC_OUT[6]~output_o $end
$var wire 1 g! AC_OUT[5]~output_o $end
$var wire 1 h! AC_OUT[4]~output_o $end
$var wire 1 i! AC_OUT[3]~output_o $end
$var wire 1 j! AC_OUT[2]~output_o $end
$var wire 1 k! AC_OUT[1]~output_o $end
$var wire 1 l! AC_OUT[0]~output_o $end
$var wire 1 m! CARGA_AC~output_o $end
$var wire 1 n! CARGA_NZ~output_o $end
$var wire 1 o! flag_Z~output_o $end
$var wire 1 p! HLT~output_o $end
$var wire 1 q! GOTO_t0~output_o $end
$var wire 1 r! WRITE~output_o $end
$var wire 1 s! CARGA_RDM~output_o $end
$var wire 1 t! PC_A0~output_o $end
$var wire 1 u! PC_B0~output_o $end
$var wire 1 v! PC_C0~output_o $end
$var wire 1 w! PC_D0~output_o $end
$var wire 1 x! PC_E0~output_o $end
$var wire 1 y! PC_F0~output_o $end
$var wire 1 z! PC_G0~output_o $end
$var wire 1 {! PC_A1~output_o $end
$var wire 1 |! PC_B1~output_o $end
$var wire 1 }! PC_C1~output_o $end
$var wire 1 ~! PC_D1~output_o $end
$var wire 1 !" PC_E1~output_o $end
$var wire 1 "" PC_F1~output_o $end
$var wire 1 #" PC_G1~output_o $end
$var wire 1 $" AC_A0~output_o $end
$var wire 1 %" AC_B0~output_o $end
$var wire 1 &" AC_C0~output_o $end
$var wire 1 '" AC_D0~output_o $end
$var wire 1 (" AC_E0~output_o $end
$var wire 1 )" AC_F0~output_o $end
$var wire 1 *" AC_G0~output_o $end
$var wire 1 +" AC_A1~output_o $end
$var wire 1 ," AC_B1~output_o $end
$var wire 1 -" AC_C1~output_o $end
$var wire 1 ." AC_D1~output_o $end
$var wire 1 /" AC_E1~output_o $end
$var wire 1 0" AC_F1~output_o $end
$var wire 1 1" AC_G1~output_o $end
$var wire 1 2" inst23|inst20~0feeder_combout $end
$var wire 1 3" clear~input_o $end
$var wire 1 4" inst23|inst20~0_q $end
$var wire 1 5" inst23|inst23~1_q $end
$var wire 1 6" step_button~input_o $end
$var wire 1 7" inst5|inst77~0_combout $end
$var wire 1 8" inst5|inst77~q $end
$var wire 1 9" inst13|inst3~combout $end
$var wire 1 :" inst13|inst3~clkctrl_outclk $end
$var wire 1 ;" inst23|inst2~1_q $end
$var wire 1 <" inst23|inst5~1_q $end
$var wire 1 =" inst23|inst14~1_q $end
$var wire 1 >" inst23|inst14~4_combout $end
$var wire 1 ?" inst17|inst13~0_combout $end
$var wire 1 @" inst17|inst31|AND0~1_combout $end
$var wire 1 A" inst23|inst17~1_q $end
$var wire 1 B" inst|inst|inst4|inst4|inst3~0_combout $end
$var wire 1 C" inst17|inst31|AND0~2_combout $end
$var wire 1 D" inst8|inst13~0_combout $end
$var wire 1 E" inst3|inst~2_combout $end
$var wire 1 F" inst23|inst20~1_q $end
$var wire 1 G" inst|inst12|inst~combout $end
$var wire 1 H" inst|inst12|inst4|inst4|inst3~0_combout $end
$var wire 1 I" inst|inst12|inst2~q $end
$var wire 1 J" inst7|inst13|inst3~0_combout $end
$var wire 1 K" inst7|inst14~q $end
$var wire 1 L" inst|inst13|inst4|inst4|inst3~0_combout $end
$var wire 1 M" inst|inst13|inst2~q $end
$var wire 1 N" inst7|inst16|inst3~0_combout $end
$var wire 1 O" inst7|inst17~q $end
$var wire 1 P" inst7|inst19|inst3~0_combout $end
$var wire 1 Q" inst7|inst20~q $end
$var wire 1 R" inst|inst15|inst4|inst4|inst3~0_combout $end
$var wire 1 S" inst|inst15|inst2~q $end
$var wire 1 T" inst7|inst22|inst3~0_combout $end
$var wire 1 U" inst7|inst23~q $end
$var wire 1 V" inst22|Mux1_rtl_0|auto_generated|ram_block1a0~portadataout $end
$var wire 1 W" inst23|inst20~4_combout $end
$var wire 1 X" inst15|inst8~q $end
$var wire 1 Y" inst3|inst~8_combout $end
$var wire 1 Z" inst8|inst28~combout $end
$var wire 1 [" inst17|inst31|AND0~4_combout $end
$var wire 1 \" inst3|inst~6_combout $end
$var wire 1 ]" inst3|inst~5_combout $end
$var wire 1 ^" inst6|inst10|inst8|inst3~12_combout $end
$var wire 1 _" inst3|inst~7_combout $end
$var wire 1 `" inst8|inst32~combout $end
$var wire 1 a" inst10|inst~combout $end
$var wire 1 b" inst10|inst1~combout $end
$var wire 1 c" inst6|inst10|inst7|inst3~1_combout $end
$var wire 1 d" inst23|inst11~1_q $end
$var wire 1 e" inst23|inst11~4_combout $end
$var wire 1 f" inst6|inst10|inst3|inst3~1_combout $end
$var wire 1 g" inst6|inst10|inst1|inst3~0_combout $end
$var wire 1 h" inst6|inst10|inst1|inst3~1_combout $end
$var wire 1 i" inst8|inst33~0_combout $end
$var wire 1 j" inst8|inst35~combout $end
$var wire 1 k" inst9|inst2~q $end
$var wire 1 l" inst6|inst1|inst1|inst5~0_combout $end
$var wire 1 m" inst6|inst10|inst3|inst3~0_combout $end
$var wire 1 n" inst6|inst10|inst3|inst3~2_combout $end
$var wire 1 o" inst9|inst8~feeder_combout $end
$var wire 1 p" inst9|inst8~q $end
$var wire 1 q" inst6|inst1|inst2|inst5~0_combout $end
$var wire 1 r" inst6|inst1|inst2|inst5~1_combout $end
$var wire 1 s" inst6|inst1|inst3|inst5~0_combout $end
$var wire 1 t" inst6|inst1|inst|inst~combout $end
$var wire 1 u" inst6|inst10|inst5|inst3~0_combout $end
$var wire 1 v" inst6|inst10|inst5|inst3~1_combout $end
$var wire 1 w" inst6|inst10|inst5|inst3~2_combout $end
$var wire 1 x" inst9|inst14~q $end
$var wire 1 y" inst6|inst1|inst|inst5~0_combout $end
$var wire 1 z" inst6|inst1|inst|inst5~1_combout $end
$var wire 1 {" inst6|inst1|inst|inst5~2_combout $end
$var wire 1 |" inst6|inst1|inst4|inst5~0_combout $end
$var wire 1 }" inst6|inst10|inst7|inst3~0_combout $end
$var wire 1 ~" inst6|inst10|inst7|inst3~2_combout $end
$var wire 1 !# inst9|inst20~q $end
$var wire 1 "# inst6|inst10|inst8|inst3~8_combout $end
$var wire 1 ## inst6|inst10|inst8|inst3~9_combout $end
$var wire 1 $# inst6|inst10|inst8|inst3~10_combout $end
$var wire 1 %# inst6|inst10|inst8|inst3~11_combout $end
$var wire 1 &# inst9|inst23~q $end
$var wire 1 '# inst8|inst40~0_combout $end
$var wire 1 (# inst8|inst13~1_combout $end
$var wire 1 )# inst3|inst~1_combout $end
$var wire 1 *# inst|inst15|inst2~2_combout $end
$var wire 1 +# inst|inst|inst2~q $end
$var wire 1 ,# inst|inst11|inst3~combout $end
$var wire 1 -# inst|inst11|inst4|inst4|inst3~0_combout $end
$var wire 1 .# inst|inst11|inst2~q $end
$var wire 1 /# inst7|inst10|inst3~0_combout $end
$var wire 1 0# inst7|inst11~q $end
$var wire 1 1# inst22|Mux1_rtl_0|auto_generated|ram_block1a3 $end
$var wire 1 2# inst23|inst17~4_combout $end
$var wire 1 3# inst15|inst5~q $end
$var wire 1 4# inst3|inst~3_combout $end
$var wire 1 5# inst8|inst8~2_combout $end
$var wire 1 6# inst8|inst36~0_combout $end
$var wire 1 7# inst8|inst8~3_combout $end
$var wire 1 8# inst8|inst40~2_combout $end
$var wire 1 9# inst17|FF0~0_combout $end
$var wire 1 :# inst17|FF0~q $end
$var wire 1 ;# inst17|inst13~q $end
$var wire 1 <# inst17|inst24~0_combout $end
$var wire 1 =# inst17|inst24~q $end
$var wire 1 ># inst17|inst31|AND0~3_combout $end
$var wire 1 ?# inst15|inst2~q $end
$var wire 1 @# inst3|inst~9_combout $end
$var wire 1 A# inst17|inst|inst3~0_combout $end
$var wire 1 B# inst17|inst11~q $end
$var wire 1 C# inst8|inst8~combout $end
$var wire 1 D# inst8|inst26~0_combout $end
$var wire 1 E# inst8|inst26~1_combout $end
$var wire 1 F# inst23|inst20~3feeder_combout $end
$var wire 1 G# inst23|inst20~3_q $end
$var wire 1 H# inst23|inst8~1_q $end
$var wire 1 I# inst22|Mux1_rtl_0|auto_generated|ram_block1a4 $end
$var wire 1 J# inst23|inst8~4_combout $end
$var wire 1 K# inst7|inst7|inst3~0_combout $end
$var wire 1 L# inst7|inst8~q $end
$var wire 1 M# inst22|Mux1_rtl_0|auto_generated|ram_block1a6 $end
$var wire 1 N# inst23|inst5~4_combout $end
$var wire 1 O# inst|inst10|inst4|inst3~0_combout $end
$var wire 1 P# inst|inst6~q $end
$var wire 1 Q# inst7|inst4|inst3~0_combout $end
$var wire 1 R# inst7|inst5~q $end
$var wire 1 S# inst22|Mux1_rtl_0|auto_generated|ram_block1a5 $end
$var wire 1 T# inst23|inst2~4_combout $end
$var wire 1 U# inst|inst9|inst4|inst3~0_combout $end
$var wire 1 V# inst|inst3~q $end
$var wire 1 W# inst7|inst|inst3~0_combout $end
$var wire 1 X# inst7|inst2~q $end
$var wire 1 Y# inst22|Mux1_rtl_0|auto_generated|ram_block1a1 $end
$var wire 1 Z# inst23|inst23~4_combout $end
$var wire 1 [# inst15|inst11~q $end
$var wire 1 \# inst3|inst~0_combout $end
$var wire 1 ]# inst8|inst10~0_combout $end
$var wire 1 ^# inst17|inst31|AND0~0_combout $end
$var wire 1 _# inst8|inst7~combout $end
$var wire 1 `# inst|inst14|inst3~combout $end
$var wire 1 a# inst|inst14|inst4|inst4|inst3~0_combout $end
$var wire 1 b# inst|inst14|inst2~q $end
$var wire 1 c# inst3|inst~4_combout $end
$var wire 1 d# inst8|inst29~combout $end
$var wire 1 e# inst8|inst31~combout $end
$var wire 1 f# inst8|inst30~combout $end
$var wire 1 g# inst6|inst10|inst6|inst3~9_combout $end
$var wire 1 h# inst6|inst10|inst6|inst3~11_combout $end
$var wire 1 i# inst6|inst10|inst6|inst3~8_combout $end
$var wire 1 j# inst6|inst10|inst6|inst3~10_combout $end
$var wire 1 k# inst9|inst17~q $end
$var wire 1 l# inst6|inst10|inst4|inst3~11_combout $end
$var wire 1 m# inst6|inst10|inst4|inst3~8_combout $end
$var wire 1 n# inst6|inst10|inst4|inst3~10_combout $end
$var wire 1 o# inst9|inst11~q $end
$var wire 1 p# inst6|inst10|inst2|inst3~2_combout $end
$var wire 1 q# inst6|inst10|inst2|inst3~0_combout $end
$var wire 1 r# inst6|inst10|inst2|inst3~1_combout $end
$var wire 1 s# inst6|inst10|inst2|inst3~3_combout $end
$var wire 1 t# inst9|inst5~q $end
$var wire 1 u# inst6|inst9~0_combout $end
$var wire 1 v# inst6|inst9~1_combout $end
$var wire 1 w# inst6|inst9~combout $end
$var wire 1 x# inst2|inst5~q $end
$var wire 1 y# inst8|inst27~combout $end
$var wire 1 z# inst8|inst22~0_combout $end
$var wire 1 {# inst12|inst|inst10~0_combout $end
$var wire 1 |# inst12|inst1|inst6~0_combout $end
$var wire 1 }# inst12|inst2|inst4~0_combout $end
$var wire 1 ~# inst12|inst3|inst~0_combout $end
$var wire 1 !$ inst12|inst4|inst4~0_combout $end
$var wire 1 "$ inst12|inst5|inst14~0_combout $end
$var wire 1 #$ inst12|inst6|inst4~0_combout $end
$var wire 1 $$ inst12|inst9|inst10~0_combout $end
$var wire 1 %$ inst12|inst15|inst6~0_combout $end
$var wire 1 &$ inst12|inst10|inst4~0_combout $end
$var wire 1 '$ inst12|inst11|inst~0_combout $end
$var wire 1 ($ inst12|inst12|inst4~0_combout $end
$var wire 1 )$ inst12|inst13|inst14~0_combout $end
$var wire 1 *$ inst12|inst14|inst4~0_combout $end
$var wire 1 +$ inst4|inst|inst10~0_combout $end
$var wire 1 ,$ inst4|inst1|inst6~0_combout $end
$var wire 1 -$ inst4|inst2|inst4~0_combout $end
$var wire 1 .$ inst4|inst3|inst~0_combout $end
$var wire 1 /$ inst4|inst4|inst4~0_combout $end
$var wire 1 0$ inst4|inst5|inst14~0_combout $end
$var wire 1 1$ inst4|inst6|inst4~0_combout $end
$var wire 1 2$ inst4|inst7|inst10~0_combout $end
$var wire 1 3$ inst4|inst8|inst6~0_combout $end
$var wire 1 4$ inst4|inst10|inst4~0_combout $end
$var wire 1 5$ inst4|inst11|inst~0_combout $end
$var wire 1 6$ inst4|inst12|inst4~0_combout $end
$var wire 1 7$ inst4|inst13|inst14~0_combout $end
$var wire 1 8$ inst4|inst14|inst4~0_combout $end
$var wire 1 9$ inst22|Mux1_rtl_0|auto_generated|ram_block1a0_PORTADATAOUT_bus [17] $end
$var wire 1 :$ inst22|Mux1_rtl_0|auto_generated|ram_block1a0_PORTADATAOUT_bus [16] $end
$var wire 1 ;$ inst22|Mux1_rtl_0|auto_generated|ram_block1a0_PORTADATAOUT_bus [15] $end
$var wire 1 <$ inst22|Mux1_rtl_0|auto_generated|ram_block1a0_PORTADATAOUT_bus [14] $end
$var wire 1 =$ inst22|Mux1_rtl_0|auto_generated|ram_block1a0_PORTADATAOUT_bus [13] $end
$var wire 1 >$ inst22|Mux1_rtl_0|auto_generated|ram_block1a0_PORTADATAOUT_bus [12] $end
$var wire 1 ?$ inst22|Mux1_rtl_0|auto_generated|ram_block1a0_PORTADATAOUT_bus [11] $end
$var wire 1 @$ inst22|Mux1_rtl_0|auto_generated|ram_block1a0_PORTADATAOUT_bus [10] $end
$var wire 1 A$ inst22|Mux1_rtl_0|auto_generated|ram_block1a0_PORTADATAOUT_bus [9] $end
$var wire 1 B$ inst22|Mux1_rtl_0|auto_generated|ram_block1a0_PORTADATAOUT_bus [8] $end
$var wire 1 C$ inst22|Mux1_rtl_0|auto_generated|ram_block1a0_PORTADATAOUT_bus [7] $end
$var wire 1 D$ inst22|Mux1_rtl_0|auto_generated|ram_block1a0_PORTADATAOUT_bus [6] $end
$var wire 1 E$ inst22|Mux1_rtl_0|auto_generated|ram_block1a0_PORTADATAOUT_bus [5] $end
$var wire 1 F$ inst22|Mux1_rtl_0|auto_generated|ram_block1a0_PORTADATAOUT_bus [4] $end
$var wire 1 G$ inst22|Mux1_rtl_0|auto_generated|ram_block1a0_PORTADATAOUT_bus [3] $end
$var wire 1 H$ inst22|Mux1_rtl_0|auto_generated|ram_block1a0_PORTADATAOUT_bus [2] $end
$var wire 1 I$ inst22|Mux1_rtl_0|auto_generated|ram_block1a0_PORTADATAOUT_bus [1] $end
$var wire 1 J$ inst22|Mux1_rtl_0|auto_generated|ram_block1a0_PORTADATAOUT_bus [0] $end
$upscope $end
$upscope $end
$enddefinitions $end
#0
$dumpvars
0!
x"
0#
1$
x%
x&
x'
x(
x)
x*
x+
x,
x-
x.
x/
x0
x1
x2
x:
x9
x8
x7
x6
x5
x4
x3
x;
x<
x=
x>
x?
x@
xA
xB
xC
xD
xE
xF
xG
xH
xI
xJ
xK
xL
xM
xN
xO
xP
xQ
xR
xS
x[
xZ
xY
xX
xW
xV
xU
xT
x\
x]
x^
x_
x`
xa
xb
xc
xd
0e
1f
xg
1h
1i
1j
0k
0l
xm
xn
xo
xp
xq
xr
0s
0t
0u
0v
0w
0x
0y
0z
0{
0|
0}
0~
0!!
0"!
0#!
0$!
0%!
0&!
0'!
0(!
0)!
0*!
0+!
x,!
x-!
x.!
x/!
x0!
x1!
x2!
x3!
x4!
x5!
x6!
x7!
x8!
x9!
x:!
x;!
x<!
x=!
x>!
x?!
x@!
xA!
xB!
1C!
xD!
xE!
xF!
xG!
xH!
xI!
xJ!
xK!
xL!
xM!
xN!
xO!
xP!
xQ!
xR!
xS!
xT!
xU!
xV!
xW!
xX!
xY!
xZ!
x[!
x\!
x]!
x^!
x_!
x`!
xa!
xb!
xc!
xd!
xe!
xf!
xg!
xh!
xi!
xj!
xk!
xl!
xm!
xn!
xo!
xp!
xq!
xr!
xs!
xt!
xu!
xv!
xw!
xx!
xy!
xz!
x{!
x|!
x}!
x~!
x!"
x""
x#"
x$"
x%"
x&"
x'"
x("
x)"
x*"
x+"
x,"
x-"
x."
x/"
x0"
x1"
12"
03"
04"
05"
06"
17"
08"
x9"
x:"
0;"
0<"
0="
x>"
x?"
x@"
0A"
xB"
xC"
xD"
xE"
0F"
xG"
xH"
0I"
xJ"
0K"
xL"
0M"
xN"
0O"
xP"
0Q"
xR"
0S"
xT"
0U"
0V"
xW"
0X"
xY"
xZ"
x["
x\"
x]"
x^"
x_"
x`"
xa"
xb"
xc"
0d"
xe"
xf"
xg"
xh"
xi"
xj"
0k"
xl"
xm"
xn"
xo"
0p"
xq"
xr"
xs"
xt"
xu"
xv"
xw"
0x"
xy"
xz"
x{"
x|"
x}"
x~"
0!#
x"#
x##
x$#
x%#
0&#
x'#
x(#
x)#
x*#
0+#
x,#
x-#
0.#
x/#
00#
01#
x2#
03#
x4#
x5#
x6#
x7#
x8#
x9#
0:#
0;#
x<#
0=#
x>#
0?#
x@#
xA#
0B#
xC#
xD#
xE#
xF#
0G#
0H#
0I#
xJ#
xK#
0L#
0M#
xN#
xO#
0P#
xQ#
0R#
0S#
xT#
xU#
0V#
xW#
0X#
0Y#
xZ#
0[#
0\#
x]#
x^#
x_#
x`#
xa#
0b#
xc#
xd#
xe#
xf#
xg#
xh#
xi#
xj#
0k#
xl#
xm#
xn#
0o#
xp#
xq#
xr#
xs#
0t#
xu#
xv#
xw#
0x#
xy#
xz#
x{#
x|#
x}#
x~#
x!$
x"$
x#$
x$$
x%$
x&$
x'$
x($
x)$
x*$
x+$
x,$
x-$
x.$
x/$
x0$
x1$
x2$
x3$
x4$
x5$
x6$
x7$
x8$
0J$
0I$
0H$
0G$
0F$
0E$
0D$
0C$
0B$
0A$
0@$
0?$
0>$
0=$
0<$
0;$
0:$
09$
$end
#447
0,$
#468
0["
#474
0f#
#482
0J#
#504
0Y"
#513
0c#
0G"
#515
04#
#517
0_"
#519
0\"
#534
0]"
#554
11!
13!
#556
1;!
1/!
#558
1?!
#565
1=!
#570
15!
17!
#571
1A!
#615
1-!
#619
0e#
#624
0Z"
0`"
#631
0@#
#641
0p
#644
0E"
#646
0|#
#651
0%$
#654
0$$
#655
0}#
#656
0r
#657
1($
0q
#669
0@"
0C"
#682
1>!
#699
0q#
#714
1<!
#715
14!
1@!
#716
1,!
10!
#727
19!
#731
02#
#732
0N#
0Z#
#733
0W"
0T#
#749
0>"
#751
18!
#754
1:!
#757
0e"
#782
0<#
#785
0)#
#789
0?"
#793
0)$
#795
0y#
#798
0&$
#799
0,#
#800
0d#
#801
0z#
#803
0i"
#805
1m
#810
0'$
#813
17#
#817
1#$
#818
0`#
#827
0{#
#831
0~#
#832
0"$
#853
16!
#854
1.!
#855
1!$
#858
0q"
#899
04$
#902
12!
#910
0+$
#914
11$
#932
0.$
#943
0E#
#955
1*$
#961
0D"
#976
0b"
#982
0y"
#1001
1H!
#1020
0j"
#1058
1F!
#1089
1/$
#1095
0l"
#1101
0/#
#1102
1'#
#1119
1B!
#1132
07$
#1144
15#
#1153
0>#
#1159
1^#
#1161
03$
#1261
0a"
#1270
1E!
1O!
1K!
1N!
#1273
1I!
#1283
0F#
#1306
0T"
#1314
0]#
#1352
1A#
#1359
0r"
#1401
0^"
#1410
0(#
0B"
#1417
06#
#1427
0K#
#1433
0Q#
#1439
0J"
#1448
0-$
#1450
00$
#1452
09"
#1453
1M!
#1489
0"#
#1492
0R"
0L"
0N"
#1505
0|"
#1509
0a#
#1513
0P"
#1553
1G!
0h#
#1554
1L!
#1575
0l#
#1638
1J!
#1652
0n
#1674
0{"
#1675
05$
#1676
18$
#1681
16$
#1683
02$
#1695
0O#
#1698
0W#
#1708
0-#
#1709
0H"
#1714
1_#
#1736
0s"
#1737
0z"
#1847
0##
#1850
0C#
#2050
0*#
#2056
0t"
#2113
0g"
#2175
0:"
#2223
0m"
#2226
1P!
#2245
08#
#2318
0$#
#2350
0c"
#2351
0g#
#2352
0i#
#2353
0m#
#2377
0u"
#2431
0h"
#2448
0D#
#2542
0n"
0f"
#2546
0p#
#2547
0o
#2597
19#
#2695
0v"
#2700
0U!
0T
#2796
0j#
#2800
0%#
#2810
0}"
#2819
0r#
#2883
0o"
#2961
0i!
07
#3067
0Z!
0Y
#3102
0f!
04
#3126
0X!
0W
#3131
0~"
#3137
0s#
#3142
0w"
#3149
0V!
0U
#3182
0v!
0J
#3184
0l!
0:
#3193
0a!
0_
#3224
0U#
#3237
0\!
0[
#3248
0j!
08
#3295
0W!
0V
#3306
0n#
#3311
0%"
0'
#3352
0y!
0P
#3354
0h!
06
#3361
0w!
0L
#3374
0k!
09
#3421
1z!
1R
#3442
0u#
#3451
0x!
0N
#3464
0{!
0G
#3472
0|!
0I
#3521
0""
0Q
#3535
0b!
0a
#3544
0!"
0O
#3568
1#"
1S
#3592
0}!
0K
#3609
0`!
0^
#3640
0g!
05
#3641
0~!
0M
#3648
0("
0-
#3657
0Y!
0X
#3668
0u!
0H
#3687
0s!
0>
#3720
0v#
#3722
0c!
0`
#3727
0'"
0+
#3756
0$"
0%
#3788
0r!
0c
#3825
0t!
0F
#3970
0-"
0*
#3994
0m!
0S!
0;
0\
#4024
0n!
0<
#4049
1w#
#4054
0)"
0/
#4059
0&"
0)
#4072
0R!
0@
#4139
0o!
0B
#4169
00"
00
#4170
1*"
11
#4185
0,"
0(
#4314
0]!
0E
#4428
0^!
0=
#4511
0+"
0&
#4577
1Q!
1?
#4582
0p!
0D
#4613
0_!
0A
#4631
0[!
0Z
#4721
0."
0,
#4788
0e!
03
#4925
0/"
0.
#4931
11"
12
#4977
0T!
0]
#5134
0d!
0b
#5340
0q!
0C
#9000
1#
0d
#9735
16"
#10000
1!
1d
#10735
13"
#11161
19"
#11885
1:"
#16130
1G$
11#
#18000
0#
0d
#18896
06"
#20348
09"
#21071
0:"
#27000
1#
1d
#27735
16"
#29161
19"
#29885
1:"
#31557
1:#
#31930
14"
#36000
0#
0d
#36896
06"
#38348
09"
#39071
0:"
#45000
1#
1d
#45735
16"
#47161
19"
#47885
1:"
#49947
1B#
#50316
0A#
#50533
0^#
#50617
1?"
#50808
1E#
#50815
1D"
#51121
0_#
#51134
1F#
#51230
1(#
#51833
1*#
#52973
1U#
#53925
1S!
1\
#53928
0Q!
0?
#54000
0#
0d
#54180
1]!
1E
#54896
06"
#56348
09"
#57071
0:"
#63000
1#
1d
#63735
16"
#65161
19"
#65885
1:"
#67555
1V#
#67558
1G#
#67924
0U#
#67947
1;#
0B#
#68248
1O#
#68252
1{#
#68254
1"$
#68256
1~#
#68274
0!$
#68300
1A#
#68316
0?"
#68616
12#
#68617
1W#
#68628
1^#
#68724
1?"
#68890
0E#
#68908
0D"
#68990
0(#
#68992
1>#
#69021
0^#
#69183
1_#
#69230
0F#
#69530
1j#
#69609
0_#
#69630
0*#
#69984
1v#
#70277
0w#
#70792
1U#
#70817
1x!
1N
#70827
1\!
1[
#70829
1y!
1P
#70844
1w!
1L
#71324
1t!
1F
#71894
0]!
0E
#71941
0S!
0\
#71956
1R!
1@
#72000
0#
0d
#72896
06"
